xxxxxxxxxxxxxxxxxxxxxxxxxxxxxxxxxxxxxxxxxxxxxxxxxxxxxxxxxxxxxxxxxxxxxxxxxxxxxxxxxxxxx
x       x                              x                              x             x
x       x                  xxxxxxx   xxxxxxxxxxxxxxxxxxxxxx      x    x   xxxxxx    x
E       x     x      x           x     x        x         x      x        x         x
x    xxxx     x      xxxxxxx     xxx   xxxxx    x         xxx xxxxxxxxxxxxxx        x
x       x     xxxx   x           x     x             xxx  x                x        x
xxxx    xxxxxxx      x       xxxxx  xxxxxxxxxxxxx    x    x                xxxxxx   x
x       x            x       x             x         x  xxxxxxxxxxxxxx     x        x
x       x     xxxxxxxxxxx    x    x        x    xxxxxx  x     x      x     x   xxxxxx
x     xxx  xxxx              x    xxxxx    x         x  x x   x   x  x     x        x
x       x     xxxxx      xxxxx    x        x         xx x x       x        xxxxx    x
x   xxxxxxxx  x          x        xxxxxxxxxxxx       x  x xxxxxxxxxxxxxxxxxx        x
x       x     x     xxxxxxxx        x                x xx x          x         x    x
x       x  xxxx            xxxxxxx  x          xxx   x  x x                    x    x
x       x     xxxxxx       x        x          x     x    x          x         x    x
x             x        xx  x        xxxxxxx    x     xxxxxx          xxxxxxxxxxx    x
xxxxxxxxxxxxxxx        x  xxxxxxxxxxx          x    x                x              x
x       x    x         x      x            xxxxxxx  x         xxxxxxxx              x
x       x    x       xxxxx    x            x        x         x                     x
x       x    xxxxxx  x        xxxxxxxx     x    x   xxxxxx xxxx          x          x
x       x    x       x        x            x    x   x   x     x          x          x
x       x            x        x            x    x   x   x     x          x          x
x       xxxxx xxxxxxxxxx      x      xxxxxxx    xxxxx   x     xxxxxxxxxxxxxxxxxxxx  x
x             x        x      x      x    x             xxxx  x       x       x     x
x             x              xxxxx xxx     xxxxxxxxxxxxxx    xx  x            x     x
x  xxxxxxx    x        x       x     x      x           x        x    x       xxxxxxx
x        x    x    xx xx       x     x      x           x     xxxxxxxx        x     x
x        x    x    x   x   xxxxx    xxxx xxxx           x            x        x     S
x       xxxxxxx    x   x                    x           xxxxxxxxx    xxxxxxxx x  x xx
x                  x   xxxxxxx              xxxxxxx     x            x      x x  x  x
x                  x         x                    x     x      xxxxxxx      x xxxxx x
x                  x         x                    x                         x  x    x
x                                                 x                         x       x
xxxxxxxxxxxxxxxxxxxxxxxxxxxxxxxxxxxxxxxxxxxxxxxxxxxxxxxxxxxxxxxxxxxxxxxxxxxxxxxxxxxxx